<?xml version="1.0" encoding="UTF-8" standalone="no"?>
<!-- Created with Inkscape (http://www.inkscape.org/) -->

<svg
   xmlns:dc="http://purl.org/dc/elements/1.1/"
   xmlns:cc="http://creativecommons.org/ns#"
   xmlns:rdf="http://www.w3.org/1999/02/22-rdf-syntax-ns#"
   xmlns:svg="http://www.w3.org/2000/svg"
   xmlns="http://www.w3.org/2000/svg"
   xmlns:sodipodi="http://sodipodi.sourceforge.net/DTD/sodipodi-0.dtd"
   xmlns:inkscape="http://www.inkscape.org/namespaces/inkscape"
   width="300"
   height="300"
   viewBox="0 0 300.00001 300"
   id="svg6369"
   version="1.1"
   inkscape:version="0.91 r"
   sodipodi:docname="Education_060_BabyABCCubes.svg">
  <defs
     id="defs6371" />
  <sodipodi:namedview
     id="base"
     pagecolor="#ffffff"
     bordercolor="#666666"
     borderopacity="1.0"
     inkscape:pageopacity="0.0"
     inkscape:pageshadow="2"
     inkscape:zoom="1.4"
     inkscape:cx="125.17857"
     inkscape:cy="139.64286"
     inkscape:document-units="px"
     inkscape:current-layer="layer1"
     showgrid="false"
     units="px"
     inkscape:window-width="1318"
     inkscape:window-height="1028"
     inkscape:window-x="601"
     inkscape:window-y="24"
     inkscape:window-maximized="0" />
  <metadata
     id="metadata6374">
    <rdf:RDF>
      <cc:Work
         rdf:about="">
        <dc:format>image/svg+xml</dc:format>
        <dc:type
           rdf:resource="http://purl.org/dc/dcmitype/StillImage" />
        <dc:title></dc:title>
      </cc:Work>
    </rdf:RDF>
  </metadata>
  <g
     inkscape:label="Layer 1"
     inkscape:groupmode="layer"
     id="layer1"
     transform="translate(0,-752.36216)">
    <path
       inkscape:connector-curvature="0"
       id="path122952"
       d="m 150,837.36516 c -12.9888,0 -23.7438,10.0449 -24.8926,22.748 -6.2221,5.6609 -11.696,6.9048 -14.8321,7.1719 l -2.5957,-2.5957 c -7.1329,-7.1329 -17.897001,-9.2818 -27.220701,-5.4316 -3.4965,1.4439 -6.5411,3.6278 -8.9824,6.3261 l 0,0 c -3.0346,3.3541 -5.1366,7.5022 -6.0156,12.0097 -22.6733,2.2874 -40.4609,21.5083 -40.4609,44.7696 0,24.7936 20.2064,45 45,45 20.3733,0 37.639801,-13.6482 43.152301,-32.2696 9.5412,1.9919 19.6711,-1.7393 25.5176,-9.9746 4.9701,-7.0006 5.8396,-15.8492 2.9062,-23.4765 l 2.3828,-15.0274 c 1.9371,0.4857 3.9591,0.7481 6.0411,0.7481 2.0814,0 4.1043,-0.2626 6.041,-0.7481 l 2.3828,15.0293 c -2.9319,7.627 -2.0625,16.4752 2.9062,23.4746 0.8797,1.2394 1.8567,2.3761 2.9141,3.4082 l 0,0 c 5.9691,5.8257 14.503,8.2709 22.6094,6.5781 5.5168,18.6144 22.7781,32.2559 43.1465,32.2559 24.7936,0 45,-20.2064 45,-45 0,-23.2673 -17.795,-42.4923 -40.4766,-44.7715 -1.588,-8.1376 -7.1487,-15.1073 -14.9961,-18.3418 -9.3208,-3.8417 -20.0766,-1.6932 -27.2051,5.4355 l -2.5976,2.5977 c -3.1358,-0.2671 -8.6085,-1.5099 -14.8301,-7.1699 -1.1479,-12.7041 -11.9051,-22.75 -24.8945,-22.75 z m 0,10 c 8.3435,0 15,6.6565 15,15 0,8.3435 -6.6565,15 -15,15 -8.3435,0 -15,-6.6565 -15,-15 0,-8.3435 6.6565,-15 15,-15 z m 0,10 a 5,5 0 0 0 -5,5 5,5 0 0 0 5,5 5,5 0 0 0 5,-5 5,5 0 0 0 -5,-5 z m -60.312501,10 c 4.0096,-0.087 7.9665,1.4411 10.919901,4.3945 l 28.2851,28.2852 c 5.1974,5.1974 5.8781,13.2957 1.6231,19.289 -3.6005,5.0717 -9.7888,7.2885 -15.6192,5.9199 0.061,-0.9561 0.1036,-1.9174 0.1036,-2.8886 0,-22.8509 -17.167701,-41.791 -39.267601,-44.6211 1.3292,-4.1149 4.3982,-7.5298 8.5449,-9.2422 1.7548,-0.7247 3.5876,-1.0973 5.4102,-1.1367 z m 120.621101,0 c 1.8216,0.039 3.6539,0.4098 5.4082,1.1328 4.1507,1.7108 7.2226,5.128 8.5527,9.2461 -22.1,2.8301 -39.2695,21.7702 -39.2695,44.6211 0,0.9711 0.042,1.9325 0.1035,2.8886 -5.8307,1.3681 -12.0188,-0.8499 -15.6192,-5.9218 -4.2545,-5.9934 -3.5722,-14.0919 1.625,-19.2891 l 28.2852,-28.2832 c 2.9516,-2.9516 6.9063,-4.4796 10.9141,-4.3945 z m -83.5958,4.0469 c 1.6398,4.1872 4.3774,7.8322 7.8575,10.5781 l -1.3145,8.2754 -14.8164,-14.8164 c 2.5483,-0.8781 5.367,-2.1634 8.2734,-4.0371 z m 46.5762,0 c 2.9063,1.8735 5.7253,3.1571 8.2735,4.0351 l -14.8184,14.8184 -1.3145,-8.2754 c 3.4807,-2.746 6.2195,-6.3904 7.8594,-10.5781 z m -103.289001,15.9531 c 19.3892,0 35.000001,15.6108 35.000001,35 0,19.3892 -15.610801,35 -35.000001,35 -19.3892,0 -35,-15.6108 -35,-35 0,-19.3892 15.6108,-35 35,-35 z m 160.000001,0 c 19.3892,0 35,15.6108 35,35 0,19.3892 -15.6108,35 -35,35 -19.3892,0 -35,-15.6108 -35,-35 0,-19.3892 15.6108,-35 35,-35 z m -160.000001,3.334 a 5.0005,5.0005 0 1 0 0,10 c 12.0254,0 21.666,9.6406 21.666,21.666 a 5.0005,5.0005 0 1 0 10.000001,0 c 0,-17.4298 -14.236201,-31.666 -31.666001,-31.666 z m 160.000001,0 a 5.0005,5.0005 0 1 0 0,10 c 12.0254,0 21.666,9.6406 21.666,21.666 a 5.0005,5.0005 0 1 0 10,0 c 0,-17.4298 -14.2362,-31.666 -31.666,-31.666 z"
       style="color:black;font-style:normal;font-variant:normal;font-weight:normal;font-stretch:normal;font-size:medium;line-height:normal;font-family:sans-serif;text-indent:0;text-align:start;text-decoration:none;text-decoration-line:none;text-decoration-style:solid;text-decoration-color:black;letter-spacing:normal;word-spacing:normal;text-transform:none;direction:ltr;block-progression:tb;writing-mode:lr-tb;baseline-shift:baseline;text-anchor:start;white-space:normal;clip-rule:nonzero;display:inline;overflow:visible;visibility:visible;opacity:1;isolation:auto;mix-blend-mode:normal;color-interpolation:sRGB;color-interpolation-filters:linearRGB;solid-color:black;solid-opacity:1;fill:black;fill-opacity:1;fill-rule:evenodd;stroke:none;stroke-width:10;stroke-linecap:round;stroke-linejoin:round;stroke-miterlimit:4;stroke-dasharray:none;stroke-dashoffset:0;stroke-opacity:1;marker:none;color-rendering:auto;image-rendering:auto;shape-rendering:auto;text-rendering:auto;enable-background:accumulate" />
  </g>
</svg>
